{
  "fallbackPages": {
    "customProperties": {
      "background-color": "#e5dcd4",
      "border-color": "#4d429a",
      "card-background-color": "#f8f1ff",
      "card-box-shadow": "0px 8px 24px rgba(149, 157, 165, 0.2)",
      "container-width": "1200px",
      "icon-color": "#4d429a",
      "primary-color": "#4d429a",
      "tab-text-color": "#4d429a",
      "text-color": "#2c1f36"
    },
    "templateStrings": {
      "pageTitle": "451 Tools Dashboard",
      "pageDescription": "You are on the offline dashboard of 451 Tools. This could be because you are facing an internet shutdown or your device is not connected to the internet. This dashboard keeps information available even when the website is censored or when the internet is down.<br />\r\n",
      "aboutInnerHTML": "<p>Zamaneh Media's <a href='https://451.tools/' target='_blank'>451 Tools</a> implements website features that aid in the censorship resilience of your website. Besides helping publishers create mirrors, the full 451 suite also allows them to keep content available under heavily censored conditions.</p><p>The <strong>Bookmark</strong> feature allows readers to bookmark content on your website for offline reading.</p><p>The <strong>Editorial</strong> feature allows you to mark content for offline availability to your readers at any time.</p><p>Additionally, the full 451 Tools suite also allows you to customise this dashboard as well as enable custom 404 page for when your readers try to reach you through referral links on search engines and elsewhere.</p><p>To get access to the full 451 Tools suite or enquire about it, please reach out to <a href='mailto:contact@451.tools'>contact@451.tools</a>.</p>",
      "copyright": "Copyright \u00a9 2023. All rights reserved."
    },
    "showHiddenTabs": true
  },
  "fallbackAssets": {
    "assets": [
      {
        "url": "/assets/css/style.css",
        "revision": "c3fdf186b789ad5a259e3d5ea29984dc"
      },
      {
        "url": "/assets/css/fontawesome-all.min.css",
        "revision": "85514f933f9e0b82460af63f1a403fa5"
      },
      {
        "url": "/assets/js/jquery.min.js",
        "revision": "7c14a783dfeb3d238ccd3edd840d82ee"
      },
      {
        "url": "/assets/js/browser.min.js",
        "revision": "c07298dd19048a8a69ad97e754dfe8d0"
      },
      {
        "url": "/assets/js/breakpoints.min.js",
        "revision": "81a479eb099e3b187613943b085923b8"
      },
      {
        "url": "/assets/js/util.min.js",
        "revision": "cbdaf7c20ac2883c77ae23acfbabd47e"
      },
      {
        "url": "/assets/js/main.min.js",
        "revision": "08add7f6d435054ad38ec38d7cf8be40"
      },
      {
        "url": "/assets/webfonts/fa-brands-400.woff2",
        "revision": "1"
      },
      {
        "url": "/assets/webfonts/fa-solid-900.woff2",
        "revision": "1"
      }
    ]
  },
  "mirroring": {
    "urls": ["https://project-ainita.pages.dev/"],
    "timeout": 3000
  }
}
